person(89253802049, "??????", "????", "????????", "????").
person(89298347739, "??????", "??????", "?????????", "?????????").
person(89250490001, "??????????", "?????", "????????", "???????").
person(89456465454, "???????", "????????", "????????????", "???????????").
person(89356456477, "??????????", "?????", "??????????", "???????????").
person(89435874322, "????????", "????????", "?????????", "?????????").
person(89895712079, "???????", "?????", "???????????", "?????").
person(89951753284, "???????", "???????", "?????????", "????????????").
person(89789123258, "??????????", "??????", "??????????", "??????").
person(89102938475, "?????????", "?????", "??????????", "????").