ВАРИАНТ 4
Задания 1-3 
X=3.89,2.60,2.56,2.33,4.35,3.97,4.16,4.10,4.82,3.17,4.15,4.05,4.45,3.76,4.83,4.27,2.0
,3.13,3.69,5.44,2.61,5.20,4.03,5.26,4.42,3.67,4.68,5.22,4.11,3.35,3.83,5.34,4.69,5.12,4
33,4.41,4.82,4.65,3.12,4.71,2.36,3.10,3.52,1.74,3.46,2.89,5.42,4.12,5.36,4.26,3.49,5.8
,5.24,4.23,4.57,3.54,4.38,4.31,2.28,4.17,3.66,5.25,3.11,4.48,3.80,4.05,3.48,1.12,2.16,4
68,4.21,3.22,4.29,4.70,4.37,4.60,4.15,4.06,3.81,3.58,4.34,3.87,4.53,6.02,3.34,3.34,2.8
,4.64,3.03,3.08,3.46,4.04,4.77,3.59,3.49,6.53,4.16,2.95,4.85,5.53,3.59,4.24,4.45,4.42,4
10,3.77,4.56,3.89,4.13,4.00,3.95,2.73,4.76,3.19,3.66,4.87,4.18,5.30,4.97,4.56
Задание 4 
T=-5.00,-4.80,-4.60,-4.40,-4.20,-4.00,-3.80,-3.60,-3.40,-3.20,-3.00,-2.80,-2.60,-2.40,-2.20
-2.00,-1.80,-1.60,-1.40,-1.20,-1.00,-0.80,-0.60,-0.40,-0.20,0.00,0.20,0.40,0.60,0.80,1.00,
.20,1.40,1.60,1.80,2.00,2.20,2.40,2.60,2.80,3.00,3.20,3.40,3.60,3.80,4.00,4.20,4.40,4.
0,4.80,5.00,5.20,5.40,5.60,5.80,6.00,6.20,6.40,6.60,6.80,7.00
Y=-155.35,-146.13,-145.61,-125.74,-120.56,-118.25,-111.65,-84.09,-87.31,-68.93,-64.05
-55.13,-50.51,-42.08,-41.60,-47.67,-36.00,-21.04,-8.70,-22.47,-12.20,3.35,7.27,2.24,-10.
7,10.68,17.90,-11.98,18.12,3.24,-17.59,-5.98,-4.02,-16.14,-18.53,-23.81,-32.92,-38.68,-
9.55,-35.21,-64.41,-63.48,-78.92,-49.45,-80.96,-81.60,-92.83,-114.44,-112.64,-137.53,-1
7.15,-139.70,-158.70,-179.76,-193.10,-203.60,-205.70,-239.25,-246.38,-257.21,-274.65
